100
--------
xzxyzzzzxzxyyyxxyyzyzxyyzyxzxxzyyzyzzxyzxzyxyxxzyzyzyxyyxxyyyxxzyzyzxxxyzyzzxyzxzyxxzxyxzzxyyyxzxzyz
--------
x	y	z
--------
A	B
--------
	A	B
A	0.438	0.562	
B	0.719	0.281	
--------
	x	y	z
A	0.353	0.605	0.042	
B	0.561	0.007	0.432
